…
```r
emberizidae <- ecosphere %>% 
  filter(family=="Emberizidae")
```


```r
miss_var_summary(emberizidae)
```

```
## # A tibble: 21 × 3
##    variable           n_miss pct_miss
##    <chr>               <int>    <dbl>
##  1 population_size         8     18.6
##  2 order                   0      0  
##  3 family                  0      0  
##  4 common_name             0      0  
##  5 scientific_name         0      0  
##  6 diet                    0      0  
##  7 life_expectancy         0      0  
##  8 habitat                 0      0  
##  9 urban_affiliate         0      0  
## 10 migratory_strategy      0      0  
## # ℹ 11 more rows
```
…
