…
# Load data

```r
ecosphere <- read.csv("ecosphere.csv", na = c("NA", "")) %>% 
  clean_names()
```


```r
miss_var_summary(ecosphere)
```

```
## # A tibble: 21 × 3
##    variable           n_miss pct_miss
##    <chr>               <int>    <dbl>
##  1 population_size       273    49.5 
##  2 habitat                14     2.54
##  3 order                   0     0   
##  4 family                  0     0   
##  5 common_name             0     0   
##  6 scientific_name         0     0   
##  7 diet                    0     0   
##  8 life_expectancy         0     0   
##  9 urban_affiliate         0     0   
## 10 migratory_strategy      0     0   
## # ℹ 11 more rows
```
…
