…
As shown above, we have a combination of categorical and continous data. This will allow us to perform a variety of analysis and representation of data on various graph types.


```r
miss_var_summary(ecosphere)
```

```
## # A tibble: 21 × 3
##    variable           n_miss pct_miss
##    <chr>               <int>    <dbl>
##  1 population_size       273    49.5 
##  2 habitat                14     2.54
##  3 order                   0     0   
##  4 family                  0     0   
##  5 common_name             0     0   
##  6 scientific_name         0     0   
##  7 diet                    0     0   
##  8 life_expectancy         0     0   
##  9 urban_affiliate         0     0   
## 10 migratory_strategy      0     0   
## # ℹ 11 more rows
```
…
Through a combination of `miss_var_summary` and `summary` functions we can check there are no NA placeholders in the data. There does not seem to be unusual data values as indicated by the `summary` function. As such, we can assume all NA values are correclty accounted for with NA.

## Weight and Diet Analysis


```r
ecosphere %>% 
  select(order, family, common_name, diet, log10_mass) %>% 
  group_by(family) %>% 
  summarise(individuals_per_family=n()) %>% 
  arrange(desc(individuals_per_family))
```

```
## # A tibble: 74 × 2
##    family       individuals_per_family
##    <chr>                         <int>
##  1 Anatidae                         44
##  2 Emberizidae                      43
##  3 Parulidae                        31
##  4 Scolopacidae                     29
##  5 Picidae                          22
##  6 Tyrannidae                       22
##  7 Accipitridae                     20
##  8 Icteridae                        20
##  9 Laridae                          20
## 10 Corvidae                         17
## # ℹ 64 more rows
```
…
